module gitlab.com/ddb_db/yaddnsc-dyndns

go 1.20

require github.com/go-resty/resty/v2 v2.7.0

require (
	github.com/davecgh/go-spew v1.1.1 // indirect
	github.com/pmezard/go-difflib v1.0.0 // indirect
	gopkg.in/yaml.v3 v3.0.1 // indirect
)

require (
	github.com/stretchr/testify v1.8.4
	github.com/vargspjut/wlog v1.0.11
	golang.org/x/net v0.0.0-20211029224645-99673261e6eb // indirect
)
